<svg width="522" height="535" viewBox="0 0 522 535" fill="none" xmlns="http://www.w3.org/2000/svg">
<path d="M308.431 0H213.899L0.00012207 535H94.5328L144.839 408.899H376.915L427.221 535H521.114L308.431 0ZM184.201 311.054L261.133 118.512L338.129 311.054H184.201Z" fill="white"/>
</svg>
