<svg width="522" height="535" viewBox="0 0 522 535" fill="none" xmlns="http://www.w3.org/2000/svg">
<path opacity="0.75" d="M308.928 0H214.395L0.49646 535H95.0291L145.336 408.899H377.411L427.718 535H521.61L308.928 0ZM184.698 311.054L261.629 118.512L338.625 311.054H184.698Z" fill="white"/>
</svg>
