<svg width="157" height="24" viewBox="0 0 157 24" fill="none" xmlns="http://www.w3.org/2000/svg">

<path d="M0 13.0142L1.67487 10.7163C2.83547 11.8136 4.05166 12.5053 5.51805 12.5053C6.67864 12.5053 7.37361 11.9806 7.37361 11.0741C7.37361 10.2552 6.92883 9.83375 4.78138 9.19766C2.18915 8.4423 0.514277 7.61539 0.514277 4.64962C0.514277 1.98599 2.39069 0.212891 5.02462 0.212891C6.90103 0.212891 8.49946 0.888736 9.81295 2.08936L8.33962 4.53035C7.19987 3.62392 6.07402 3.0753 4.98987 3.0753C3.90572 3.0753 3.33585 3.63983 3.33585 4.40313C3.33585 5.37317 3.88487 5.69122 6.11572 6.34321C8.7288 7.12242 10.2021 8.19582 10.2021 10.8038C10.2021 13.7298 8.24927 15.3757 5.4694 15.3757C3.51654 15.3757 1.54978 14.5965 0 13.0142Z" fill="white"/>
<path d="M12.7871 0.427734H15.6226V15.1691H12.7871V0.427734Z" fill="white"/>
<path d="M18.8477 0.427734H21.6831V12.2193H28.1046V15.1691H18.8477V0.427734Z" fill="white"/>
<path d="M27.0137 0.427734H30.141L33.5116 10.8119L36.8822 0.427734H39.9401L34.7348 15.2725H32.2329L27.0137 0.427734Z" fill="white"/>
<path d="M41.9204 0.427734H51.6361V3.31399H44.735V6.30362H50.8091V9.18987H44.735V12.2829H51.7264V15.1691H41.9204V0.427734Z" fill="white"/>
<path d="M54.256 0.427734H60.1424C61.7825 0.427734 63.0473 0.952509 63.8952 1.92255C64.611 2.74151 65.0002 3.90238 65.0002 5.33358C65.0002 7.71097 63.8743 9.20578 62.2412 9.90548L65.3894 15.1691H62.0744L59.2736 10.4541H57.0845V15.1691H54.249V0.427734H54.256ZM59.9617 7.58375C61.3447 7.58375 62.13 6.74093 62.13 5.4608C62.13 4.06935 61.2821 3.35375 59.9061 3.35375H57.0914V7.58375H59.9617Z" fill="white"/>
<path d="M71.2412 1.9623H66.9185V0.427734H77.0372V1.9623H72.7145V15.1612H71.2412V1.9623Z" fill="#A0A0A0"/>
<path d="M79.7612 0.427734H89.0738V1.9464H81.2137V6.97946H88.2468V8.49813H81.2137V13.6584H89.1642V15.1771H79.7612V0.427734Z" fill="#A0A0A0"/>
<path d="M92.09 0.427734H93.5424V13.6266H100.791V15.1612H92.083V0.427734H92.09Z" fill="#A0A0A0"/>
<path d="M103.481 0.427734H112.794V1.9464H104.933V6.97946H111.967V8.49813H104.933V13.6584H112.884V15.1771H103.481V0.427734Z" fill="#A0A0A0"/>
<path d="M115.24 7.79798C115.24 3.63159 117.964 0.172852 121.752 0.172852C124.087 0.172852 125.449 1.15879 126.742 2.55024L125.783 3.727C124.698 2.55024 123.482 1.70742 121.731 1.70742C118.881 1.70742 116.741 4.36309 116.741 7.79003C116.741 11.217 118.895 13.8726 121.731 13.8726C123.496 13.8726 124.657 13.0934 125.887 11.7497L126.846 12.9106C125.505 14.469 124.031 15.4152 121.696 15.4152C117.978 15.4152 115.233 12.0677 115.233 7.79003L115.24 7.79798Z" fill="#A0A0A0"/>
<path d="M128.458 7.79798C128.458 3.73496 131.127 0.172852 135.046 0.172852C138.966 0.172852 141.6 3.68725 141.6 7.79798C141.6 11.9087 138.931 15.4231 135.012 15.4231C131.092 15.4231 128.458 11.9087 128.458 7.79798ZM140.092 7.79798C140.092 4.45056 137.958 1.71537 135.012 1.71537C132.065 1.71537 129.966 4.4108 129.966 7.79798C129.966 11.1852 132.1 13.8806 135.046 13.8806C137.993 13.8806 140.092 11.1852 140.092 7.79798Z" fill="#A0A0A0"/>
<path d="M144.671 0.427734H146.145L150.836 8.47427L155.527 0.427734H157V15.1691H155.548V3.22653L150.857 11.122H150.78L146.089 3.25038V15.1691H144.671V0.427734Z" fill="#A0A0A0"/>

<path d="M79.7759 21.4819C79.7759 20.3926 80.5195 19.4941 81.4647 19.4941C82.0901 19.4941 82.4932 19.8201 82.7851 20.2018L82.5627 20.4642C82.2778 20.1302 81.9511 19.836 81.4577 19.836C80.721 19.836 80.1164 20.5755 80.1164 21.4819C80.1164 22.3883 80.721 23.1278 81.4855 23.1278C81.9511 23.1278 82.3056 22.8336 82.5836 22.4838L82.8198 22.7223C82.4793 23.1596 82.0762 23.4777 81.4647 23.4777C80.5056 23.4777 79.7759 22.5871 79.7759 21.4899V21.4819Z" fill="#A0A0A0"/>
<path d="M83.3965 21.4819C83.3965 20.4165 84.1193 19.4941 85.1061 19.4941C86.093 19.4941 86.8018 20.4006 86.8018 21.4819C86.8018 22.5633 86.0791 23.4697 85.0922 23.4697C84.1054 23.4697 83.3965 22.5633 83.3965 21.4819ZM86.4613 21.4819C86.4613 20.5675 85.8428 19.836 85.0922 19.836C84.3416 19.836 83.737 20.5755 83.737 21.4819C83.737 22.3883 84.3347 23.1278 85.1061 23.1278C85.8775 23.1278 86.4613 22.3883 86.4613 21.4819Z" fill="#A0A0A0"/>
<path d="M87.7887 19.5894H88.1084V20.2971C88.3308 19.8518 88.6991 19.502 89.3037 19.502C90.1446 19.502 90.6311 20.1539 90.6311 21.0683V23.3901H90.3114V21.1319C90.3114 20.3527 89.9292 19.8359 89.2551 19.8359C88.5809 19.8359 88.1014 20.4004 88.1014 21.1876V23.3821H87.7817V19.5815L87.7887 19.5894Z" fill="#A0A0A0"/>
<path d="M91.7775 19.5894H92.0971V20.2971C92.3195 19.8518 92.6879 19.502 93.2925 19.502C94.1334 19.502 94.6199 20.1539 94.6199 21.0683V23.3901H94.3002V21.1319C94.3002 20.3527 93.918 19.8359 93.2438 19.8359C92.5697 19.8359 92.0902 20.4004 92.0902 21.1876V23.3821H91.7705V19.5815L91.7775 19.5894Z" fill="#A0A0A0"/>
<path d="M95.5381 21.474C95.5381 20.3688 96.2122 19.4941 97.1157 19.4941C98.0191 19.4941 98.6376 20.3608 98.6376 21.4819C98.6376 21.5455 98.6376 21.5694 98.6376 21.633H95.8856C95.9412 22.5792 96.5388 23.1278 97.1852 23.1278C97.6994 23.1278 98.0539 22.8654 98.3249 22.5315L98.5473 22.7541C98.2068 23.1676 97.8106 23.4697 97.1713 23.4697C96.3026 23.4697 95.545 22.6746 95.545 21.474H95.5381ZM98.2902 21.299C98.2415 20.5357 97.8593 19.8281 97.1018 19.8281C96.4415 19.8281 95.9342 20.4642 95.8786 21.299H98.2902Z" fill="#A0A0A0"/>
<path d="M99.3389 21.4819C99.3389 20.3926 100.082 19.4941 101.028 19.4941C101.653 19.4941 102.056 19.8201 102.348 20.2018L102.126 20.4642C101.841 20.1302 101.514 19.836 101.021 19.836C100.284 19.836 99.6794 20.5755 99.6794 21.4819C99.6794 22.3883 100.284 23.1278 101.048 23.1278C101.514 23.1278 101.869 22.8336 102.147 22.4838L102.383 22.7223C102.042 23.1596 101.639 23.4777 101.028 23.4777C100.069 23.4777 99.3389 22.5871 99.3389 21.4899V21.4819Z" fill="#A0A0A0"/>
<path d="M103.46 22.4122V19.9235H102.981V19.5896H103.46V18.373H103.78V19.5896H104.948V19.9235H103.78V22.3725C103.78 22.9131 104.058 23.1119 104.447 23.1119C104.607 23.1119 104.746 23.0722 104.934 22.9767V23.3186C104.767 23.4061 104.6 23.4538 104.392 23.4538C103.877 23.4538 103.46 23.1358 103.46 22.4122Z" fill="#A0A0A0"/>
<path d="M105.899 18.0947H106.296V18.5956H105.899V18.0947ZM105.941 19.5816H106.261V23.3822H105.941V19.5816Z" fill="#A0A0A0"/>
<path d="M107.283 21.4819C107.283 20.4165 108.006 19.4941 108.993 19.4941C109.98 19.4941 110.689 20.4006 110.689 21.4819C110.689 22.5633 109.966 23.4697 108.979 23.4697C107.992 23.4697 107.283 22.5633 107.283 21.4819ZM110.348 21.4819C110.348 20.5675 109.729 19.836 108.979 19.836C108.228 19.836 107.624 20.5755 107.624 21.4819C107.624 22.3883 108.221 23.1278 108.993 23.1278C109.764 23.1278 110.348 22.3883 110.348 21.4819Z" fill="#A0A0A0"/>
<path d="M111.675 19.5894H111.995V20.2971C112.217 19.8518 112.585 19.502 113.19 19.502C114.031 19.502 114.517 20.1539 114.517 21.0683V23.3901H114.198V21.1319C114.198 20.3527 113.815 19.8359 113.141 19.8359C112.467 19.8359 111.988 20.4004 111.988 21.1876V23.3821H111.668V19.5815L111.675 19.5894Z" fill="#A0A0A0"/>
<path d="M117.797 22.4122V19.9235H117.318V19.5896H117.797V18.373H118.117V19.5896H119.285V19.9235H118.117V22.3725C118.117 22.9131 118.395 23.1119 118.784 23.1119C118.944 23.1119 119.083 23.0722 119.271 22.9767V23.3186C119.104 23.4061 118.937 23.4538 118.729 23.4538C118.214 23.4538 117.797 23.1358 117.797 22.4122Z" fill="#A0A0A0"/>
<path d="M119.896 21.4819C119.896 20.4165 120.619 19.4941 121.606 19.4941C122.593 19.4941 123.302 20.4006 123.302 21.4819C123.302 22.5633 122.579 23.4697 121.592 23.4697C120.605 23.4697 119.896 22.5633 119.896 21.4819ZM122.961 21.4819C122.961 20.5675 122.343 19.836 121.592 19.836C120.842 19.836 120.237 20.5755 120.237 21.4819C120.237 22.3883 120.835 23.1278 121.606 23.1278C122.378 23.1278 122.961 22.3883 122.961 21.4819Z" fill="#A0A0A0"/>
<path d="M126.422 22.4122V19.9235H125.942V19.5896H126.422V18.373H126.742V19.5896H127.909V19.9235H126.742V22.3725C126.742 22.9131 127.02 23.1119 127.409 23.1119C127.569 23.1119 127.708 23.0722 127.895 22.9767V23.3186C127.728 23.4061 127.562 23.4538 127.353 23.4538C126.839 23.4538 126.422 23.1358 126.422 22.4122Z" fill="#A0A0A0"/>
<path d="M128.848 17.9435H129.167V20.2891C129.39 19.8438 129.758 19.494 130.363 19.494C131.204 19.494 131.69 20.146 131.69 21.0603V23.3821H131.371V21.1239C131.371 20.3447 130.988 19.8279 130.314 19.8279C129.64 19.8279 129.161 20.3924 129.161 21.1796V23.3741H128.841V17.9355L128.848 17.9435Z" fill="#A0A0A0"/>
<path d="M132.608 21.474C132.608 20.3688 133.282 19.4941 134.185 19.4941C135.089 19.4941 135.707 20.3608 135.707 21.4819C135.707 21.5455 135.707 21.5694 135.707 21.633H132.955C133.011 22.5792 133.609 23.1278 134.255 23.1278C134.769 23.1278 135.124 22.8654 135.395 22.5315L135.617 22.7541C135.277 23.1676 134.88 23.4697 134.241 23.4697C133.372 23.4697 132.615 22.6746 132.615 21.474H132.608ZM135.36 21.299C135.311 20.5357 134.929 19.8281 134.172 19.8281C133.511 19.8281 133.004 20.4642 132.948 21.299H135.36Z" fill="#A0A0A0"/>
<path d="M138.786 19.9235H138.306V19.5895H138.786V19.2158C138.786 18.7865 138.89 18.4446 139.078 18.2219C139.244 18.0311 139.481 17.9277 139.773 17.9277C139.974 17.9277 140.12 17.9595 140.266 18.0152V18.3571C140.078 18.2935 139.939 18.2617 139.773 18.2617C139.314 18.2617 139.105 18.5718 139.105 19.2238V19.5895H140.266V19.9235H139.105V23.3902H138.786V19.9235Z" fill="#A0A0A0"/>
<path d="M140.885 21.9116V19.5898H141.204V21.848C141.204 22.6272 141.587 23.144 142.261 23.144C142.935 23.144 143.414 22.5795 143.414 21.7923V19.5978H143.734V23.3984H143.414V22.6908C143.192 23.136 142.824 23.4859 142.219 23.4859C141.378 23.4859 140.892 22.8339 140.892 21.9195L140.885 21.9116Z" fill="#A0A0A0"/>
<path d="M145.117 22.4122V19.9235H144.637V19.5896H145.117V18.373H145.436V19.5896H146.604V19.9235H145.436V22.3725C145.436 22.9131 145.714 23.1119 146.104 23.1119C146.263 23.1119 146.402 23.0722 146.59 22.9767V23.3186C146.423 23.4061 146.256 23.4538 146.048 23.4538C145.534 23.4538 145.117 23.1358 145.117 22.4122Z" fill="#A0A0A0"/>
<path d="M147.48 21.9116V19.5898H147.8V21.848C147.8 22.6272 148.182 23.144 148.856 23.144C149.53 23.144 150.01 22.5795 150.01 21.7923V19.5978H150.329V23.3984H150.01V22.6908C149.787 23.136 149.419 23.4859 148.814 23.4859C147.973 23.4859 147.487 22.8339 147.487 21.9195L147.48 21.9116Z" fill="#A0A0A0"/>
<path d="M151.531 19.5893H151.851V20.6707C152.108 19.9948 152.664 19.5019 153.324 19.5337V19.9392H153.29C152.518 19.9392 151.851 20.5991 151.851 21.8395V23.3979H151.531V19.5973V19.5893Z" fill="#A0A0A0"/>
<path d="M153.749 21.474C153.749 20.3688 154.423 19.4941 155.326 19.4941C156.23 19.4941 156.848 20.3608 156.848 21.4819C156.848 21.5455 156.848 21.5694 156.848 21.633H154.096C154.152 22.5792 154.749 23.1278 155.396 23.1278C155.91 23.1278 156.264 22.8654 156.535 22.5315L156.758 22.7541C156.417 23.1676 156.021 23.4697 155.382 23.4697C154.513 23.4697 153.755 22.6746 153.755 21.474H153.749ZM156.501 21.299C156.452 20.5357 156.07 19.8281 155.312 19.8281C154.652 19.8281 154.145 20.4642 154.089 21.299H156.501Z" fill="#A0A0A0"/>
</svg>
